{
  "type": "service_account",
  "project_id": "ltf-alpha-keys",
  "private_key_id": "4b49ff09ad257e821856c429f48baf12932cd0b4",
  "private_key": "-----BEGIN PRIVATE KEY-----\nMIIEvQIBADANBgkqhkiG9w0BAQEFAASCBKcwggSjAgEAAoIBAQC1QfAmQQ9KLam+\nbDJiVQ/E3fyt4u9im4hnYs/ItDJ6a4KrbUgDv08WKzW6kx/3JJYYz6hEY7+LRzwJ\ncMYVw28QOzNLpoemuedrqZ3pO/PUYyeAghGqKqFn11qQNNiojPUHvcvYH+UR8Lbd\nLheXlwq8/ZknKBv6EYhXqnt95crNdvRA3eB0gjfHOpk82CDwRp+zUUUp9hvLgOhm\nCDG2DicybD+ZV/iBgRBnL2hiSU51njB4U7HjMREnz4syKln3zcspkJS27BK47+xb\nGtB/GiCOSriKQg+MevVleCXRsmEo5wDOkKIkwH0nkVU/f7CuBdCD588MynC9CVmU\nHcJWaSsJAgMBAAECggEAUFpL2NmMqqi1kDos19S3qeFzC68HymICxTpTvLjNi+Gv\nSsmmXCrqJ3y+U9i3Gfu5IoSkJrVFi7vnjJPW7Hz39m0YH1hS2IGfauYFoAi43hWa\nxGhk5lgBt6QLfNRAm+/pDCaCgGwbQ6m/lyvAv63wz7lotKgeRuyQ0bQ9DKHbFtv9\nAUzTyJfObwrPQaVG+DstuQ6IhbJZUj3UFOG+z6alOb8crt0kcJhoZbZ3yLT3eX55\nByexzpGIdqHYHaaARvzJQZ2pu5LdfoFyPGWfCsuJSjr+sPEGEDs+kxhBBYIZ3Ekh\nk6cvEXKwlRny9iEDvhmOo6P8+EnzqMD3KaVOcbEH0QKBgQD5UYNQZ6sLABoEtOuP\ntQN8h8EW6lOjC8PWByAv0ds2s9us4Nfnmg6i5uI1KW0bQHhsKrESpFCo9/ju1UYA\nD6uwM5H1iJmyR1fImRnMJsBIQ9uGUHMdoW/M7KcSvy7x6kMriCA6vKYbvsqxyMG/\nFQRIVvOlJR/EYluBgy1nAjZL3QKBgQC6HXu8uH3n0g0l859EfyLDr9bDq/JP9tgh\nBJlS1Ic0aOu3HwO7vA+ClgOlcZ37BYNbl0Q1FSIzuMrgSUWu9/DCRRHPZTHGDfId\nsmiuIUGoGBC/IXt9zFU2JPWWmDe/3cjDY8ZM+/h9xDeBFu0WGAVXPmLbYiWhD3w1\nrIlnENkvHQKBgQC95W0sR9nKhihLH3YwPgJKzqeuiYpsrKBcG49TfPcIIlQWyCcK\nu5ecUllHfqcg06klUhsPBOJ+4GjVmNI5Z7YwfgcVShcu6BIfsyUoDvfz0uOY2Rvl\nHLooDrRunfnmvrSsqoFJ27h1d4uxgCS6IwrhAoGPbshUb0odSknBpLiwbQKBgCnW\n6PNDEmLkELqgawSOBDWzuPciF4YseufpTcKWLpL0p1DycvdoTqBPsyAlS5ub4Kzd\nc6LvTlIMT+dd8YFlEcXKmzdhi2/3wJ82dVv38/ei+VjOYSGlpt5WLrOdIqNKa5Cp\nRHIYDwPO8Z9elQvreH/lcXnaNZVgks7KK9V0ry5tAoGALY8JP7W9XCqx7AmKcSE3\n4v6osW4MnmcjxUf3IkcNcam7mQOopnZwb2W9bj4LZ2tSjd9PjZp9lQHKH2B4fbGw\nA28hPN1BtBhGi78c9IJofYsLX4b7um+1uReDoVe/yY9m4xirYcNyVjL8J5Paqt7H\ng9YvBqLxM94zjM6nrZZvvt0=\n-----END PRIVATE KEY-----\n",
  "client_email": "mastabot@ltf-alpha-keys.iam.gserviceaccount.com",
  "client_id": "108053915015859625755",
  "auth_uri": "https://accounts.google.com/o/oauth2/auth",
  "token_uri": "https://accounts.google.com/o/oauth2/token",
  "auth_provider_x509_cert_url": "https://www.googleapis.com/oauth2/v1/certs",
  "client_x509_cert_url": "https://www.googleapis.com/robot/v1/metadata/x509/mastabot%40ltf-alpha-keys.iam.gserviceaccount.com"
}
